../Core/Src/currents.cpp:11:1:Current::Current(uint8_t)	16	static
../Core/Src/currents.cpp:15:6:void Current::setCurrents(uint32_t, uint32_t, int32_t)	48	static
../Core/Src/currents.cpp:23:9:int32_t Current::calibration(uint32_t, int32_t, int32_t, int32_t)	40	static
